flight_delays_report.utf8
…
# Logistic model EWR
ewr_multi_logreg_model <- glm(flight_delayed_numeric ~ ., 
         data = model_dataset_ewr, family = binomial(link = 'logit'))

ewr_tidy_out <- clean_names(tidy(ewr_multi_logreg_model))
glance_out <- clean_names(glance(ewr_multi_logreg_model))

clean_names(tidy(ewr_multi_logreg_model)) %>% 
  select(term, p_value) %>% 
  filter(p_value < 0.05) %>% 
  arrange(desc(term))

## # A tibble: 59 x 2
##    term                      p_value
##    <chr>                       <dbl>
##  1 wind_speed_mph           5.28e-91
##  2 wind_dir_cardinalS       5.94e-13
##  3 wind_dir_cardinalNo wind 2.85e- 8
##  4 wind_dir_cardinalN       2.05e-23
##  5 visib                    1.06e-95
##  6 temp_min_day_f           1.43e-25
##  7 temp_max_day_f           5.59e-29
##  8 snowfall_day_total_inch  1.24e-40
##  9 sched_dep_weekday7       2.03e- 8
## 10 sched_dep_weekday6       1.16e-18
## #  with 49 more rows
…
